{
  "Test RBF interpolation": {
    "Interpolation points": "Quadrature points",
    "RBF interpolation": {
      "RBF support radius": {
        "Support computation method": "Constant",
        "Constant support": "0.01"
      }
    }
  }
}