{
    "Mesh optimization test": {
        "Mesh and space discretization": {
            "Element type": "Tet",
            "File": {
                "Filename": "../../mesh/cube_tet.msh"
            }
        },
        "Mesh optimization": {
            "Gradient penalization factor": "1.0"
        },
        "Output": {
            "HDF5 format": {
                "Export mesh at every output": "true"
            }
        }
    }
}